[{"data":{"SearchResult":{"search":[{"elements":[{"avgProductRating":4.758570913248425,"cobrandingEnabled":false,"completions":null,"duration":null,"id":"s12n~kr43OcbTEeqeNBKhfgCLyw","imageUrl":"https://d15cw65ipctsrr.cloudfront.net/41/4d3d7c05fb42729c9d90352e072ca3/1060x596_GCC-photos_Karrim.png","isCourseFree":false,"isCreditEligible":true,"isNewContent":false,"isPartOfCourseraPlus":true,"name":"Google Data Analytics","numProductRatings":163559,"parentCourseName":null,"parentLessonName":null,"partnerLogos":["http://coursera-university-assets.s3.amazonaws.com/4a/cb36835ae3421187080898a7ecc11d/Google-G_360x360.png"],"partners":["Google"],"productCard":{"id":"kr43OcbTEeqeNBKhfgCLyw","canonicalType":"SPECIALIZATION","marketingProductType":"PROFESSIONAL_CERTIFICATE","productTypeAttributes":{"isPathwayContent":true,"__typename":"ProductCard_Specialization"},"__typename":"ProductCard_ProductCard"},"productDifficultyLevel":"BEGINNER","productDuration":"THREE_TO_SIX_MONTHS","productType":"PROFESSIONAL_CERTIFICATE","skills":["Data Storytelling","Data Visualization","Data Presentation","Data Ethics","Rmarkdown","Interactive Data Visualization","Interviewing Skills","Data Cleansing","Data Validation","Ggplot2","Tableau Software","Presentations","Spreadsheet Software","Data Analysis","Data Visualization Software","Stakeholder Communications","Dashboard","Sampling (Statistics)","Analytics","Stakeholder Management"],"url":"/professional-certificates/google-data-analytics","videosInLesson":null,"translatedName":null,"translatedSkills":null,"translatedParentCourseName":null,"translatedParentLessonName":null,"__typename":"Search_ProductHit"},{"avgProductRating":4.814663998807977,"cobrandingEnabled":false,"completions":null,"duration":null,"id":"s12n~Dy6K-2UKEe2PIRJn6nL9pQ","imageUrl":"https://d15cw65ipctsrr.cloudfront.net/5d/60dbadd92b4f0a8d855b312b8f890d/google_cropped_hero_r.jpg","isCourseFree":false,"isCreditEligible":false,"isNewContent":false,"isPartOfCourseraPlus":true,"name":"Google Cybersecurity","numProductRatings":46979,"parentCourseName":null,"parentLessonName":null,"partnerLogos":["http://coursera-university-assets.s3.amazonaws.com/4a/cb36835ae3421187080898a7ecc11d/Google-G_360x360.png"],"partners":["Google"],"productCard":{"id":"Dy6K-2UKEe2PIRJn6nL9pQ","canonicalType":"SPECIALIZATION","marketingProductType":"PROFESSIONAL_CERTIFICATE","productTypeAttributes":{"isPathwayContent":true,"__typename":"ProductCard_Specialization"},"__typename":"ProductCard_ProductCard"},"productDifficultyLevel":"BEGINNER","productDuration":"THREE_TO_SIX_MONTHS","productType":"PROFESSIONAL_CERTIFICATE","skills":["Threat Modeling","Open Web Application Security Project (OWASP)","Intrusion Detection and Prevention","Security Controls","Vulnerability Management","Incident Response","Computer Security Incident Management","Cyber Threat Intelligence","Vulnerability Assessments","Event Monitoring","Network Security","Security Awareness","Threat Detection","Risk Management","Cybersecurity","Hardening","Bash (Scripting Language)","Data Ethics","Linux Commands","Debugging"],"url":"/professional-certificates/google-cybersecurity","videosInLesson":null,"translatedName":null,"translatedSkills":null,"translatedParentCourseName":null,"translatedParentLessonName":null,"__typename":"Search_ProductHit"},{"avgProductRating":4.837204174747126,"cobrandingEnabled":false,"completions":null,"duration":null,"id":"s12n~fq9UWMbTEeqpthJ2RmWGow","imageUrl":"https://d15cw65ipctsrr.cloudfront.net/bf/b07da9bbe24cb8b0daa00010ff8b22/1060x596_GCC-photos_Ashley.png","isCourseFree":false,"isCreditEligible":true,"isNewContent":false,"isPartOfCourseraPlus":true,"name":"Google Project Management:","numProductRatings":124271,"parentCourseName":null,"parentLessonName":null,"partnerLogos":["http://coursera-university-assets.s3.amazonaws.com/4a/cb36835ae3421187080898a7ecc11d/Google-G_360x360.png"],"partners":["Google"],"productCard":{"id":"fq9UWMbTEeqpthJ2RmWGow","canonicalType":"SPECIALIZATION","marketingProductType":"PROFESSIONAL_CERTIFICATE","productTypeAttributes":{"isPathwayContent":true,"__typename":"ProductCard_Specialization"},"__typename":"ProductCard_ProductCard"},"productDifficultyLevel":"BEGINNER","productDuration":"THREE_TO_SIX_MONTHS","productType":"PROFESSIONAL_CERTIFICATE","skills":["Quality Management","Project Scoping","Project Closure","Project Management","Project Management Life Cycle","Project Planning","Continuous Improvement Process","Agile Project Management","Project Controls","Quality Monitoring","Backlogs","Team Management","Project Documentation","Agile Methodology","Communication Planning","Project Risk Management","Change Management","Milestones (Project Management)","Organizational Structure","Data Storytelling"],"url":"/professional-certificates/google-project-management","videosInLesson":null,"translatedName":null,"translatedSkills":null,"translatedParentCourseName":null,"translatedParentLessonName":null,"__typename":"Search_ProductHit"},{"avgProductRating":4.796469852321249,"cobrandingEnabled":false,"completions":null,"duration":null,"id":"s12n~aYYrIEl-EeyCjQ5Y8Mzdsw","imageUrl":"https://d15cw65ipctsrr.cloudfront.net/5a/8b726b9c414ccc894ed397d66789fc/1060x596_GCC-photos_Trin.png","isCourseFree":false,"isCreditEligible":false,"isNewContent":false,"isPartOfCourseraPlus":true,"name":"Google Digital Marketing & E-commerce","numProductRatings":36769,"parentCourseName":null,"parentLessonName":null,"partnerLogos":["http://coursera-university-assets.s3.amazonaws.com/4a/cb36835ae3421187080898a7ecc11d/Google-G_360x360.png"],"partners":["Google"],"productCard":{"id":"aYYrIEl-EeyCjQ5Y8Mzdsw","canonicalType":"SPECIALIZATION","marketingProductType":"PROFESSIONAL_CERTIFICATE","productTypeAttributes":{"isPathwayContent":true,"__typename":"ProductCard_Specialization"},"__typename":"ProductCard_ProductCard"},"productDifficultyLevel":"BEGINNER","productDuration":"THREE_TO_SIX_MONTHS","productType":"PROFESSIONAL_CERTIFICATE","skills":["Media Planning","Search Engine Marketing","Email Marketing","Data Storytelling","Social Media Strategy","Search Engine Optimization","Social Media","Social Media Marketing","Content Creation","Order Fulfillment","A/B Testing","Target Audience","Digital Marketing","E-Commerce","Loyalty Programs","Social Media Management","Customer Retention","Persona Development","Performance Measurement","Marketing Automation"],"url":"/professional-certificates/google-digital-marketing-ecommerce","videosInLesson":null,"translatedName":null,"translatedSkills":null,"translatedParentCourseName":null,"translatedParentLessonName":null,"__typename":"Search_ProductHit"},{"avgProductRating":4.813017001335654,"cobrandingEnabled":false,"completions":null,"duration":null,"id":"s12n~Z-5wCcbTEeqeNBKhfgCLyw","imageUrl":"https://d15cw65ipctsrr.cloudfront.net/f9/f48728d31a4af3b8eba082c0b4cb18/1060x596_GCC-photos-1-.png","isCourseFree":false,"isCreditEligible":true,"isNewContent":false,"isPartOfCourseraPlus":true,"name":"Google UX Design","numProductRatings":88346,"parentCourseName":null,"parentLessonName":null,"partnerLogos":["http://coursera-university-assets.s3.amazonaws.com/4a/cb36835ae3421187080898a7ecc11d/Google-G_360x360.png"],"partners":["Google"],"productCard":{"id":"Z-5wCcbTEeqeNBKhfgCLyw","canonicalType":"SPECIALIZATION","marketingProductType":"PROFESSIONAL_CERTIFICATE","productTypeAttributes":{"isPathwayContent":true,"__typename":"ProductCard_Specialization"},"__typename":"ProductCard_ProductCard"},"productDifficultyLevel":"BEGINNER","productDuration":"THREE_TO_SIX_MONTHS","productType":"PROFESSIONAL_CERTIFICATE","skills":["Storyboarding","Wireframing","UI/UX Research","Responsive Web Design","User Experience Design","Design Thinking","User Research","Information Architecture","Figma (Design Software)","Usability Testing","User Story","Web Design","Design Reviews","Usability","Presentations","Design Research","Persona (User Experience)","Ideation","User Centered Design","Mockups"],"url":"/professional-certificates/google-ux-design","videosInLesson":null,"translatedName":null,"translatedSkills":null,"translatedParentCourseName":null,"translatedParentLessonName":null,"__typename":"Search_ProductHit"},{"avgProductRating":4.780112139024281,"cobrandingEnabled":false,"completions":null,"duration":null,"id":"s12n~7lHCSlFIEeeffRIHljDI_g","imageUrl":"https://d15cw65ipctsrr.cloudfront.net/5e/107f6ec9544c0a9785cd4b16787917/Amie-Hanbury-Hero-Image-.jpg","isCourseFree":false,"isCreditEligible":true,"isNewContent":false,"isPartOfCourseraPlus":true,"name":"Google IT Support","numProductRatings":199217,"parentCourseName":null,"parentLessonName":null,"partnerLogos":["http://coursera-university-assets.s3.amazonaws.com/4a/cb36835ae3421187080898a7ecc11d/Google-G_360x360.png"],"partners":["Google"],"productCard":{"id":"7lHCSlFIEeeffRIHljDI_g","canonicalType":"SPECIALIZATION","marketingProductType":"PROFESSIONAL_CERTIFICATE","productTypeAttributes":{"isPathwayContent":true,"__typename":"ProductCard_Specialization"},"__typename":"ProductCard_ProductCard"},"productDifficultyLevel":"BEGINNER","productDuration":"THREE_TO_SIX_MONTHS","productType":"PROFESSIONAL_CERTIFICATE","skills":["Computer Networking","Network Troubleshooting","Package and Software Management","Systems Administration","Cloud Infrastructure","IT Infrastructure","TCP/IP","Desktop Support","Network Security","Network Architecture","Computer Hardware","Linux","Encryption","Microsoft Windows","Lightweight Directory Access Protocols","Cybersecurity","Security Awareness","Technical Support","Software Installation","Help Desk Support"],"url":"/professional-certificates/google-it-support","videosInLesson":null,"translatedName":null,"translatedSkills":null,"translatedParentCourseName":null,"translatedParentLessonName":null,"__typename":"Search_ProductHit"},{"avgProductRating":4.894217836716738,"cobrandingEnabled":true,"completions":null,"duration":null,"id":"s12n~nOOfCDWeEeuiZgo2K4rorQ","imageUrl":"https://d15cw65ipctsrr.cloudfront.net/3a/9d2a7af297483a845340bcfbac6f1e/MLS.course-banners-01_Course-Logo-.png","isCourseFree":false,"isCreditEligible":false,"isNewContent":false,"isPartOfCourseraPlus":false,"name":"Machine Learning","numProductRatings":31822,"parentCourseName":null,"parentLessonName":null,"partnerLogos":["http://coursera-university-assets.s3.amazonaws.com/b4/5cb90bb92f420b99bf323a0356f451/Icon.png","http://coursera-university-assets.s3.amazonaws.com/e8/7cc3d09d3f11e698dfff46d35f2da1/Stanford_Coursera_Logo.png"],"partners":["DeepLearning.AI","Stanford University"],"productCard":{"id":"nOOfCDWeEeuiZgo2K4rorQ","canonicalType":"SPECIALIZATION","marketingProductType":"SPECIALIZATION","productTypeAttributes":{"isPathwayContent":true,"__typename":"ProductCard_Specialization"},"__typename":"ProductCard_ProductCard"},"productDifficultyLevel":"BEGINNER","productDuration":"ONE_TO_THREE_MONTHS","productType":"SPECIALIZATION","skills":["Unsupervised Learning","Supervised Learning","Classification And Regression Tree (CART)","Artificial Intelligence and Machine Learning (AI/ML)","Machine Learning Algorithms","Machine Learning","Jupyter","Data Ethics","Decision Tree Learning","Tensorflow","Scikit Learn (Machine Learning Library)","NumPy","Predictive Modeling","Deep Learning","Artificial Intelligence","Reinforcement Learning","Random Forest Algorithm","Feature Engineering","Python Programming","Artificial Neural Networks"],"url":"/specializations/machine-learning-introduction","videosInLesson":null,"translatedName":null,"translatedSkills":null,"translatedParentCourseName":null,"translatedParentLessonName":null,"__typename":"Search_ProductHit"},{"avgProductRating":4.740021691973969,"cobrandingEnabled":null,"completions":null,"duration":null,"id":"course~wJNTWX2_Ee6qCxKoPjxZ1Q","imageUrl":"https://s3.amazonaws.com/coursera-course-photos/3c/fc877b66e24a9785daec760d848b5b/Google_Caroline_149.jpg","isCourseFree":false,"isCreditEligible":false,"isNewContent":false,"isPartOfCourseraPlus":true,"name":"Google AI Essentials","numProductRatings":9220,"parentCourseName":null,"parentLessonName":null,"partnerLogos":["http://coursera-university-assets.s3.amazonaws.com/4a/cb36835ae3421187080898a7ecc11d/Google-G_360x360.png"],"partners":["Google"],"productCard":{"id":"wJNTWX2_Ee6qCxKoPjxZ1Q","canonicalType":"COURSE","marketingProductType":"COURSE","productTypeAttributes":{"isPathwayContent":false,"__typename":"ProductCard_Course"},"__typename":"ProductCard_ProductCard"},"productDifficultyLevel":"BEGINNER","productDuration":"ONE_TO_THREE_MONTHS","productType":"COURSE","skills":["Generative AI","Artificial Intelligence and Machine Learning (AI/ML)","Productivity Software","Artificial Intelligence","Data Ethics","Security Awareness","Business Workflow Analysis","Innovation","Automation","Workflow Management","Information Privacy","Human Computer Interaction","Content Creation","Natural Language Processing","Complex Problem Solving"],"url":"/learn/google-ai-essentials","videosInLesson":null,"translatedName":null,"translatedSkills":null,"translatedParentCourseName":null,"translatedParentLessonName":null,"__typename":"Search_ProductHit"},{"avgProductRating":4.843396784760647,"cobrandingEnabled":false,"completions":null,"duration":null,"id":"s12n~W62RsyrdEeeFQQqyuQaohA","imageUrl":"https://d15cw65ipctsrr.cloudfront.net/a4/079d5e7c7b45ac9107f22bfcfeab91/Specialization-logo.png","isCourseFree":false,"isCreditEligible":true,"isNewContent":false,"isPartOfCourseraPlus":false,"name":"Deep Learning","numProductRatings":145308,"parentCourseName":null,"parentLessonName":null,"partnerLogos":["http://coursera-university-assets.s3.amazonaws.com/b4/5cb90bb92f420b99bf323a0356f451/Icon.png"],"partners":["DeepLearning.AI"],"productCard":{"id":"W62RsyrdEeeFQQqyuQaohA","canonicalType":"SPECIALIZATION","marketingProductType":"SPECIALIZATION","productTypeAttributes":{"isPathwayContent":true,"__typename":"ProductCard_Specialization"},"__typename":"ProductCard_ProductCard"},"productDifficultyLevel":"INTERMEDIATE","productDuration":"THREE_TO_SIX_MONTHS","productType":"SPECIALIZATION","skills":["Computer Vision","Deep Learning","Image Analysis","Natural Language Processing","Artificial Neural Networks","Artificial Intelligence and Machine Learning (AI/ML)","Tensorflow","Supervised Learning","Keras (Neural Network Library)","Artificial Intelligence","Applied Machine Learning","PyTorch (Machine Learning Library)","Machine Learning","Debugging","Performance Tuning","Machine Learning Methods","Data Strategy","Python Programming","Text Mining","Network Architecture"],"url":"/specializations/deep-learning","videosInLesson":null,"translatedName":null,"translatedSkills":null,"translatedParentCourseName":null,"translatedParentLessonName":null,"__typename":"Search_ProductHit"},{"avgProductRating":4.632251459342053,"cobrandingEnabled":false,"completions":null,"duration":null,"id":"s12n~7qRy6fOWEeqIvgrCa-MVgQ","imageUrl":"https://d15cw65ipctsrr.cloudfront.net/63/baf9bea98641aeb8fd36a7b1291791/DA-PC_Image.jpg","isCourseFree":false,"isCreditEligible":true,"isNewContent":false,"isPartOfCourseraPlus":true,"name":"IBM Data Analyst","numProductRatings":88396,"parentCourseName":null,"parentLessonName":null,"partnerLogos":["http://coursera-university-assets.s3.amazonaws.com/bb/f5ced2bdd4437aa79f00eb1bf7fbf0/IBM-Logo-Blk---Square.png"],"partners":["IBM"],"productCard":{"id":"7qRy6fOWEeqIvgrCa-MVgQ","canonicalType":"SPECIALIZATION","marketingProductType":"PROFESSIONAL_CERTIFICATE","productTypeAttributes":{"isPathwayContent":true,"__typename":"ProductCard_Specialization"},"__typename":"ProductCard_ProductCard"},"productDifficultyLevel":"BEGINNER","productDuration":"THREE_TO_SIX_MONTHS","productType":"PROFESSIONAL_CERTIFICATE","skills":["Data Storytelling","Dashboard","Data Visualization Software","Plotly","Data Presentation","Data Wrangling","Data Visualization","SQL","Generative AI","Interactive Data Visualization","Exploratory Data Analysis","Data Cleansing","Big Data","Jupyter","Matplotlib","Data Analysis","Statistical Analysis","Pandas (Python Package)","Excel Formulas","Professional Networking"],"url":"/professional-certificates/ibm-data-analyst","videosInLesson":null,"translatedName":null,"translatedSkills":null,"translatedParentCourseName":null,"translatedParentLessonName":null,"__typename":"Search_ProductHit"}],"facets":[],"pagination":{"cursor":"1","totalElements":10000,"__typename":"Pagination"},"totalPages":1000,"source":{"indexName":"consumer_products_cohere_embed_english_v3_alias:rt-search-heavy-ranker-cohere-english-prod","recommender":null,"__typename":"Search_ResultSource"},"__typename":"Search_Result"}],"__typename":"SearchResultQueries"}}}
]